{
  "devToolsPort": 19002,
  "expoServerPort": 19000,
  "packagerPort": 19001,
  "packagerPid": 3036,
  "expoServerNgrokUrl": "https://k9-m9g.anonymous.places-app.exp.direct",
  "packagerNgrokUrl": "https://packager.k9-m9g.anonymous.places-app.exp.direct",
  "ngrokPid": 3047
}
